{
  "Parameters": {
    "EnvironmentRegion": "us-east-2",
    "RdsSecretName": "CustomerMasterRdsConnection",
    "Environment": "Prod",
    "GetErpUrl": "https://efmwhnt7m1-vpce-0abed1eb96354b0cf.execute-api.us-east-2.amazonaws.com/Prod",
    "RedshiftSecretName": "CustomerMasterRedShiftConnection",
    "SecurityGroupIds": "sg-00342f239f8a829eb",
    "SubnetIds": "subnet-0820def5632f771a8,subnet-0b91b9a4f5e972464",
    "CognitoPoolId": "us-east-2_SQBjPqUEH",
    "LambdaRole": "MdmLambdaRole",
    "SqsLambdaRole": "MdmLambdaSQS"
  }
}